18/11/2020 23:32:11 - active() - Criando/verificando tabelas
18/11/2020 23:32:41 - gerar() - Sem Post
18/11/2020 23:33:17 - validate() - Dentro
18/11/2020 23:33:17 - validate() - Não encontrou o código ou já tem cliente usando, código: 45556
18/11/2020 23:33:22 - validate() - Dentro
18/11/2020 23:33:22 - validate() - Não encontrou o código ou já tem cliente usando, código: TA553944614
18/11/2020 23:33:31 - validate() - Dentro
18/11/2020 23:33:31 - validate() - Validado com sucesso, código: TA729167108
18/11/2020 23:34:14 - Salvando o ID do cliente no Código, Cliente ID: 11
18/11/2020 23:34:14 - Salvando com sucesso o Cliente ID: 11
18/11/2020 23:35:52 - validate() - Dentro
18/11/2020 23:35:52 - validate() - Não encontrou o código ou já tem cliente usando, código: 6677
18/11/2020 23:36:02 - validate() - Dentro
18/11/2020 23:36:02 - validate() - Não encontrou o código ou já tem cliente usando, código: TA729167108
18/11/2020 23:38:01 - validate() - Dentro
18/11/2020 23:38:01 - validate() - Não encontrou o código ou já tem cliente usando, código: TA729167108
18/11/2020 23:38:22 - active() - Melhoria desativada
18/11/2020 23:39:18 - active() - Criando/verificando tabelas
18/11/2020 23:39:36 - active() - Melhoria desativada
18/11/2020 23:40:07 - active() - Melhoria desativada
18/11/2020 23:40:13 - active() - Criando/verificando tabelas
18/11/2020 23:40:30 - saveUnidade() - Sem Post
18/11/2020 23:40:31 - saveUnidade() - Salvando a unidade
18/11/2020 23:42:35 - active() - Melhoria desativada
19/11/2020 22:26:00 - active() - Melhoria desativada
19/11/2020 22:33:46 - active() - Melhoria desativada
20/11/2020 09:59:41 - active() - Melhoria desativada
20/11/2020 16:03:47 - active() - Melhoria desativada
20/11/2020 16:25:58 - active() - Melhoria desativada
23/11/2020 12:10:18 - active() - Criando/verificando tabelas
23/11/2020 12:10:39 - active() - Melhoria desativada
23/11/2020 12:50:07 - active() - Criando/verificando tabelas
23/11/2020 12:59:08 - saveUnidade() - Sem Post
23/11/2020 12:59:09 - saveUnidade() - Salvando a unidade
23/11/2020 12:59:36 - active() - Criando/verificando tabelas
23/11/2020 13:00:35 - validate() - Dentro
23/11/2020 13:00:35 - validate() - Validado com sucesso, código: ITAPECERICA867209766
23/11/2020 13:00:51 - validate() - Dentro
23/11/2020 13:00:51 - validate() - Não encontrou o código ou já tem cliente usando, código: ajsybdckasd svadf
23/11/2020 13:01:51 - saveUnidade() - Sem Post
23/11/2020 13:01:51 - saveUnidade() - Salvando a unidade
23/11/2020 16:46:16 - active() - Melhoria desativada
25/11/2020 11:43:21 - active() - Melhoria desativada
26/11/2020 08:01:37 - active() - Criando/verificando tabelas
26/11/2020 08:30:09 - active() - Melhoria desativada
26/11/2020 12:49:48 - active() - Criando/verificando tabelas
26/11/2020 12:57:27 - active() - Melhoria desativada
26/11/2020 13:16:53 - active() - Criando/verificando tabelas
26/11/2020 13:17:18 - active() - Melhoria desativada
26/11/2020 17:02:46 - active() - Criando/verificando tabelas
26/11/2020 17:03:45 - active() - Melhoria desativada
27/11/2020 09:48:41 - construct() - Desativado, verifique a configuração
